<svg width="168" height="168" viewBox="0 0 168 168" fill="none" xmlns="http://www.w3.org/2000/svg">
<path d="M88.7708 107.959L83.0482 102.607L77.3921 107.959L83.0482 119.097L88.7708 107.959Z" fill="#E4002B"/>
<path d="M83.0483 71.9925C80.8524 71.9925 79.0558 73.6726 79.0558 75.7261C79.0558 77.7796 80.8524 79.4598 83.0483 79.4598C85.2442 79.4598 87.0408 77.7796 87.0408 75.7261C86.9742 73.6726 85.2442 71.9925 83.0483 71.9925Z" fill="#005EB8"/>
<path d="M83.0482 55.3774C81.8504 55.9374 66.08 63.7157 66.08 76.2232C66.08 86.8639 75.3293 103.043 75.3293 103.043L83.0482 95.8244L90.767 103.043C90.767 103.043 100.016 86.8639 100.016 76.2232C100.016 63.7779 84.2459 55.9374 83.0482 55.3774ZM88.1719 90.9086L83.1147 86.1794L78.0575 90.9086C77.7913 90.2241 74.3977 81.6369 74.3977 76.0365C74.3977 68.4449 82.5158 64.2135 83.1147 63.9024C83.7136 64.2135 91.8317 68.4449 91.8317 76.0365C91.8317 81.6369 88.4381 90.2863 88.1719 90.9086Z" fill="#005EB8"/>
<path d="M100.061 49.9865L94.2734 55.3985L100.061 60.8105L105.848 55.3985L100.061 49.9865Z" fill="#005EB8"/>
<path opacity="0.15" d="M84 0C37.5529 0 0 37.5529 0 84C0 130.447 37.5529 168 84 168C130.447 168 168 130.447 168 84C168 37.5529 130.447 0 84 0ZM84 130.776C58.3059 130.776 37.2236 110.024 37.2236 84C37.2236 58.3059 57.9764 37.2235 84 37.2235C109.694 37.2235 130.777 57.9765 130.777 84C130.777 109.694 110.024 130.776 84 130.776Z" fill="#00A9E0"/>
</svg>
